Tile 1951:
#.##...##.
#.####...#
.....#..##
#...######
.##.#....#
.###.#####
###.##.##.
.###....#.
..#.#..#.#
#...##.#..

Tile 2729:
...#.#.#.#
####.#....
..#.#.....
....#..#.#
.##..##.#.
.#.####...
####.#.#..
##.####...
##..#.##..
#.##...##.
